genius Basics
…
The functions in this package enable easy access of individual song lyrics, album tracklists, and lyrics to whole albums.

Individual songs genius_lyrics()

Getting lyrics to a single song is pretty easy. Let’s get in our ELEMENT. and checkout DNA.. But first, note that the genius_lyrics() function takes two arguments, artist and song. Be sure to spell the name of the artist and the song correctly, but don’t worry about capitalization.

First, let’s set up our working environment.

genius_lyrics() returns only the barebones. Utilizing dplyr we can also create a new variable with the line number to help in future tidytext analysis. This will be covered in a later vignette / post.

DNA <- genius_lyrics(artist = "Kendrick Lamar", song = "DNA.")
DNA

## # A tibble: 71 x 3
##    track_title  line lyric                                                 
##    <chr>       <int> <chr>                                                 
##  1 DNA.            1 I got, I got, I got, I got—                           
##  2 DNA.            2 Loyalty, got royalty inside my DNACocaine quarter pie…
##  3 DNA.            3 I got hustle though, ambition flow inside my DNAI was…
##  4 DNA.            4 I transform like this, perform like this, was Yeshua …
##  5 DNA.            5 I don't contemplate, I meditate, then off your fuckin…
##  6 DNA.            6 This that put-the-kids-to-bed                         
##  7 DNA.            7 This that I got, I got, I got, I got—                 
##  8 DNA.            8 Realness, I just kill shit 'cause it's in my DNAI got…
##  9 DNA.            9 I got off, I got troublesome heart inside my DNAI jus…
## 10 DNA.           10 Yeah, that's him again, the sound that engine in is l…
## # … with 61 more rows

This function also enables you to get verse level information. This tends to me more popular in hip-hop where songs may have multiple feature artists (thanks to @natebarr64 for the help!). genius_lyrics() has an argument called info. It defaults to "title". If you provide the argument info = "features" two new columns appear, "verse" and "vocalist".

genius_lyrics(artist = "Kendrick Lamar", song = "DNA.", info = "features")

## # A tibble: 71 x 4
##     line lyric                                       element element_artist
##    <int> <chr>                                       <chr>   <chr>         
##  1     1 I got, I got, I got, I got—                 Verse 1 Kendrick Lamar
##  2     2 Loyalty, got royalty inside my DNACocaine … Verse 1 Kendrick Lamar
##  3     3 I got hustle though, ambition flow inside … Verse 1 Kendrick Lamar
##  4     4 I transform like this, perform like this, … Verse 1 Kendrick Lamar
##  5     5 I don't contemplate, I meditate, then off … Verse 1 Kendrick Lamar
##  6     6 This that put-the-kids-to-bed               Verse 1 Kendrick Lamar
##  7     7 This that I got, I got, I got, I got—       Verse 1 Kendrick Lamar
##  8     8 Realness, I just kill shit 'cause it's in … Verse 1 Kendrick Lamar
##  9     9 I got off, I got troublesome heart inside … Verse 1 Kendrick Lamar
## 10    10 Yeah, that's him again, the sound that eng… Verse 1 Kendrick Lamar
## # … with 61 more rows
…
artist_albums %>%
 add_genius(artist, album)

## Joining, by = c("track_title", "track_n", "track_url")
## Joining, by = c("track_title", "track_n", "track_url")

## Joining, by = c("artist", "album")

## # A tibble: 1,320 x 6
##    artist  album track_title track_n  line lyric                           
##    <chr>   <chr> <chr>         <int> <int> <chr>                           
##  1 J. Cole KOD   Intro (KOD)       1     1 Can someone please turn off my …
##  2 J. Cole KOD   Intro (KOD)       1     2 My thoughts are racing all the …
##  3 J. Cole KOD   Intro (KOD)       1     3 There is no reason or no rhyme  
##  4 J. Cole KOD   Intro (KOD)       1     4 I'm trapped inside myself       
##  5 J. Cole KOD   Intro (KOD)       1     5 A newborn baby has two primary …
##  6 J. Cole KOD   Intro (KOD)       1     6 "Laughter, which says, \"I love…
##  7 J. Cole KOD   Intro (KOD)       1     7 "Or crying, which says, \"This …
##  8 J. Cole KOD   Intro (KOD)       1     8 There are many ways to deal wit…
##  9 J. Cole KOD   Intro (KOD)       1     9 Choose wisely                   
## 10 J. Cole KOD   Intro (KOD)       1    10 At the bottom of the hourglass  
## # … with 1,310 more rows

# Example with 2 different artists and songs
artist_songs <- tribble(
 ~artist, ~track,
 "J. Cole", "Motiv8",
 "Andrew Bird", "Anonanimal"
)

artist_songs %>%
 add_genius(artist, track, type = "lyrics")

## Joining, by = c("artist", "track")

## # A tibble: 102 x 5
##    artist  track  track_title  line lyric                                  
##    <chr>   <chr>  <chr>       <int> <chr>                                  
##  1 J. Cole Motiv8 Motiv8          1 You really wanna know who Superman is? 
##  2 J. Cole Motiv8 Motiv8          2 Watch this, pow!                       
##  3 J. Cole Motiv8 Motiv8          3 I like him                             
##  4 J. Cole Motiv8 Motiv8          4 I think he's pretty cool               
##  5 J. Cole Motiv8 Motiv8          5 He's my idol                           
##  6 J. Cole Motiv8 Motiv8          6 I can't have no sympathy for fuck nigg…
##  7 J. Cole Motiv8 Motiv8          7 All this shit I've seen done made my b…
##  8 J. Cole Motiv8 Motiv8          8 Spill promethazine inside a double cup 
##  9 J. Cole Motiv8 Motiv8          9 Double up my cream, now that's a Doubl…
## 10 J. Cole Motiv8 Motiv8         10 Please don't hit my phone if it ain't …
## # … with 92 more rows
…
